FPGA-DDS/simulation/qsim/ddsAD9854.msim.vcd
$comment
	File created using the following command:
		vcd file ddsAD9854.msim.vcd -direction
$end
$date
	Tue Jul 29 14:59:25 2025
$end
$version
	ModelSim Version 2020.1
$end
$timescale
	1ps
$end

$scope module pgrfsm_vhd_vec_tst $end
$var wire 1 ! addressMemBuffer [5] $end
$var wire 1 " addressMemBuffer [4] $end
$var wire 1 # addressMemBuffer [3] $end
$var wire 1 $ addressMemBuffer [2] $end
$var wire 1 % addressMemBuffer [1] $end
$var wire 1 & addressMemBuffer [0] $end
$var wire 1 ' bufferEndFlag $end
$var wire 1 ( clc_buffer $end
$var wire 1 ) clk $end
$var wire 1 * ctrlBuffer [7] $end
$var wire 1 + ctrlBuffer [6] $end
$var wire 1 , ctrlBuffer [5] $end
$var wire 1 - ctrlBuffer [4] $end
$var wire 1 . ctrlBuffer [3] $end
$var wire 1 / ctrlBuffer [2] $end
$var wire 1 0 ctrlBuffer [1] $end
$var wire 1 1 ctrlBuffer [0] $end
$var wire 1 2 en_buffer $end
$var wire 1 3 endProgram [31] $end
$var wire 1 4 endProgram [30] $end
$var wire 1 5 endProgram [29] $end
$var wire 1 6 endProgram [28] $end
$var wire 1 7 endProgram [27] $end
$var wire 1 8 endProgram [26] $end
$var wire 1 9 endProgram [25] $end
$var wire 1 : endProgram [24] $end
$var wire 1 ; endProgram [23] $end
$var wire 1 < endProgram [22] $end
$var wire 1 = endProgram [21] $end
$var wire 1 > endProgram [20] $end
$var wire 1 ? endProgram [19] $end
$var wire 1 @ endProgram [18] $end
$var wire 1 A endProgram [17] $end
$var wire 1 B endProgram [16] $end
$var wire 1 C endProgram [15] $end
$var wire 1 D endProgram [14] $end
$var wire 1 E endProgram [13] $end
$var wire 1 F endProgram [12] $end
$var wire 1 G endProgram [11] $end
$var wire 1 H endProgram [10] $end
$var wire 1 I endProgram [9] $end
$var wire 1 J endProgram [8] $end
$var wire 1 K endProgram [7] $end
$var wire 1 L endProgram [6] $end
$var wire 1 M endProgram [5] $end
$var wire 1 N endProgram [4] $end
$var wire 1 O endProgram [3] $end
$var wire 1 P endProgram [2] $end
$var wire 1 Q endProgram [1] $end
$var wire 1 R endProgram [0] $end
$var wire 1 S flag1 $end
$var wire 1 T flagEND $end
$var wire 1 U rd_buffer $end
$var wire 1 V rst_n $end
$var wire 1 W start $end
$var wire 1 X wr_buffer $end

$scope module i1 $end
$var wire 1 Y gnd $end
$var wire 1 Z vcc $end
$var wire 1 [ unknown $end
$var wire 1 \ devoe $end
$var wire 1 ] devclrn $end
$var wire 1 ^ devpor $end
$var wire 1 _ ww_devoe $end
$var wire 1 ` ww_devclrn $end
$var wire 1 a ww_devpor $end
$var wire 1 b ww_rd_buffer $end
$var wire 1 c ww_clk $end
$var wire 1 d ww_rst_n $end
$var wire 1 e ww_start $end
$var wire 1 f ww_bufferEndFlag $end
$var wire 1 g ww_endProgram [31] $end
$var wire 1 h ww_endProgram [30] $end
$var wire 1 i ww_endProgram [29] $end
$var wire 1 j ww_endProgram [28] $end
$var wire 1 k ww_endProgram [27] $end
$var wire 1 l ww_endProgram [26] $end
$var wire 1 m ww_endProgram [25] $end
$var wire 1 n ww_endProgram [24] $end
$var wire 1 o ww_endProgram [23] $end
$var wire 1 p ww_endProgram [22] $end
$var wire 1 q ww_endProgram [21] $end
$var wire 1 r ww_endProgram [20] $end
$var wire 1 s ww_endProgram [19] $end
$var wire 1 t ww_endProgram [18] $end
$var wire 1 u ww_endProgram [17] $end
$var wire 1 v ww_endProgram [16] $end
$var wire 1 w ww_endProgram [15] $end
$var wire 1 x ww_endProgram [14] $end
$var wire 1 y ww_endProgram [13] $end
$var wire 1 z ww_endProgram [12] $end
$var wire 1 { ww_endProgram [11] $end
$var wire 1 | ww_endProgram [10] $end
$var wire 1 } ww_endProgram [9] $end
$var wire 1 ~ ww_endProgram [8] $end
$var wire 1 !! ww_endProgram [7] $end
$var wire 1 "! ww_endProgram [6] $end
$var wire 1 #! ww_endProgram [5] $end
$var wire 1 $! ww_endProgram [4] $end
$var wire 1 %! ww_endProgram [3] $end
$var wire 1 &! ww_endProgram [2] $end
$var wire 1 '! ww_endProgram [1] $end
$var wire 1 (! ww_endProgram [0] $end
$var wire 1 )! ww_wr_buffer $end
$var wire 1 *! ww_en_buffer $end
$var wire 1 +! ww_clc_buffer $end
$var wire 1 ,! ww_flag1 $end
$var wire 1 -! ww_flagEND $end
$var wire 1 .! ww_addressMemBuffer [5] $end
$var wire 1 /! ww_addressMemBuffer [4] $end
$var wire 1 0! ww_addressMemBuffer [3] $end
$var wire 1 1! ww_addressMemBuffer [2] $end
$var wire 1 2! ww_addressMemBuffer [1] $end
$var wire 1 3! ww_addressMemBuffer [0] $end
$var wire 1 4! ww_ctrlBuffer [7] $end
$var wire 1 5! ww_ctrlBuffer [6] $end
$var wire 1 6! ww_ctrlBuffer [5] $end
$var wire 1 7! ww_ctrlBuffer [4] $end
$var wire 1 8! ww_ctrlBuffer [3] $end
$var wire 1 9! ww_ctrlBuffer [2] $end
$var wire 1 :! ww_ctrlBuffer [1] $end
$var wire 1 ;! ww_ctrlBuffer [0] $end
$var wire 1 <! \rd_buffer~output_o\ $end
$var wire 1 =! \wr_buffer~output_o\ $end
$var wire 1 >! \en_buffer~output_o\ $end
$var wire 1 ?! \clc_buffer~output_o\ $end
$var wire 1 @! \flag1~output_o\ $end
$var wire 1 A! \flagEND~output_o\ $end
$var wire 1 B! \addressMemBuffer[5]~output_o\ $end
$var wire 1 C! \addressMemBuffer[4]~output_o\ $end
$var wire 1 D! \addressMemBuffer[3]~output_o\ $end
$var wire 1 E! \addressMemBuffer[2]~output_o\ $end
$var wire 1 F! \addressMemBuffer[1]~output_o\ $end
$var wire 1 G! \addressMemBuffer[0]~output_o\ $end
$var wire 1 H! \ctrlBuffer[7]~output_o\ $end
$var wire 1 I! \ctrlBuffer[6]~output_o\ $end
$var wire 1 J! \ctrlBuffer[5]~output_o\ $end
$var wire 1 K! \ctrlBuffer[4]~output_o\ $end
$var wire 1 L! \ctrlBuffer[3]~output_o\ $end
$var wire 1 M! \ctrlBuffer[2]~output_o\ $end
$var wire 1 N! \ctrlBuffer[1]~output_o\ $end
$var wire 1 O! \ctrlBuffer[0]~output_o\ $end
$var wire 1 P! \clk~input_o\ $end
$var wire 1 Q! \start~input_o\ $end
$var wire 1 R! \inst|state.state_rst~0_combout\ $end
$var wire 1 S! \rst_n~input_o\ $end
$var wire 1 T! \inst|state.state_rst~q\ $end
$var wire 1 U! \bufferEndFlag~input_o\ $end
$var wire 1 V! \inst|state.state_2~q\ $end
$var wire 1 W! \inst|state.state_3~q\ $end
$var wire 1 X! \inst|state.state_4~q\ $end
$var wire 1 Y! \endProgram[1]~input_o\ $end
$var wire 1 Z! \endProgram[0]~input_o\ $end
$var wire 1 [! \inst|Equal0~0_combout\ $end
$var wire 1 \! \endProgram[7]~input_o\ $end
$var wire 1 ]! \endProgram[6]~input_o\ $end
$var wire 1 ^! \endProgram[5]~input_o\ $end
$var wire 1 _! \endProgram[4]~input_o\ $end
$var wire 1 `! \endProgram[3]~input_o\ $end
$var wire 1 a! \endProgram[2]~input_o\ $end
$var wire 1 b! \inst|Equal0~1_combout\ $end
$var wire 1 c! \endProgram[13]~input_o\ $end
$var wire 1 d! \endProgram[12]~input_o\ $end
$var wire 1 e! \endProgram[11]~input_o\ $end
$var wire 1 f! \endProgram[10]~input_o\ $end
$var wire 1 g! \endProgram[9]~input_o\ $end
$var wire 1 h! \endProgram[8]~input_o\ $end
$var wire 1 i! \inst|Equal0~2_combout\ $end
$var wire 1 j! \endProgram[19]~input_o\ $end
$var wire 1 k! \endProgram[18]~input_o\ $end
$var wire 1 l! \endProgram[17]~input_o\ $end
$var wire 1 m! \endProgram[16]~input_o\ $end
$var wire 1 n! \endProgram[15]~input_o\ $end
$var wire 1 o! \endProgram[14]~input_o\ $end
$var wire 1 p! \inst|Equal0~3_combout\ $end
$var wire 1 q! \endProgram[31]~input_o\ $end
$var wire 1 r! \endProgram[30]~input_o\ $end
$var wire 1 s! \endProgram[29]~input_o\ $end
$var wire 1 t! \endProgram[28]~input_o\ $end
$var wire 1 u! \endProgram[27]~input_o\ $end
$var wire 1 v! \endProgram[26]~input_o\ $end
$var wire 1 w! \inst|Equal0~4_combout\ $end
$var wire 1 x! \endProgram[25]~input_o\ $end
$var wire 1 y! \endProgram[24]~input_o\ $end
$var wire 1 z! \endProgram[23]~input_o\ $end
$var wire 1 {! \endProgram[22]~input_o\ $end
$var wire 1 |! \endProgram[21]~input_o\ $end
$var wire 1 }! \endProgram[20]~input_o\ $end
$var wire 1 ~! \inst|Equal0~5_combout\ $end
$var wire 1 !" \inst|Equal0~6_combout\ $end
$var wire 1 "" \inst|Selector1~0_combout\ $end
$var wire 1 #" \inst|state.state_5~q\ $end
$var wire 1 $" \inst|state~13_combout\ $end
$var wire 1 %" \inst|state.state_6~q\ $end
$var wire 1 &" \inst|Selector0~0_combout\ $end
$var wire 1 '" \inst|state.state_1~q\ $end
$var wire 1 (" \inst|state.state_7~0_combout\ $end
$var wire 1 )" \inst|state.state_7~q\ $end
$var wire 1 *" \inst|WideOr3~combout\ $end
$var wire 1 +" \inst|countVarAddressPos[0]~6_combout\ $end
$var wire 1 ," \inst|countVarAddressPos[1]~5_combout\ $end
$var wire 1 -" \inst|countVarAddressPos[2]~4_combout\ $end
$var wire 1 ." \inst|countVarAddressPos[3]~3_combout\ $end
$var wire 1 /" \inst|countVarAddressPos[4]~2_combout\ $end
$var wire 1 0" \inst|countVarAddressPos[3]~0_combout\ $end
$var wire 1 1" \inst|countVarAddressPos[5]~1_combout\ $end
$var wire 1 2" \inst|AddressMempulse[5]~1_combout\ $end
$var wire 1 3" \inst|AddressMempulse[5]~3_combout\ $end
$var wire 1 4" \inst|AddressMempulse[5]~_emulated_q\ $end
$var wire 1 5" \inst|AddressMempulse[5]~2_combout\ $end
$var wire 1 6" \inst|AddressMempulse[4]~5_combout\ $end
$var wire 1 7" \inst|AddressMempulse[4]~7_combout\ $end
$var wire 1 8" \inst|AddressMempulse[4]~_emulated_q\ $end
$var wire 1 9" \inst|AddressMempulse[4]~6_combout\ $end
$var wire 1 :" \inst|AddressMempulse[3]~9_combout\ $end
$var wire 1 ;" \inst|AddressMempulse[3]~11_combout\ $end
$var wire 1 <" \inst|AddressMempulse[3]~_emulated_q\ $end
$var wire 1 =" \inst|AddressMempulse[3]~10_combout\ $end
$var wire 1 >" \inst|AddressMempulse[2]~13_combout\ $end
$var wire 1 ?" \inst|AddressMempulse[2]~15_combout\ $end
$var wire 1 @" \inst|AddressMempulse[2]~_emulated_q\ $end
$var wire 1 A" \inst|AddressMempulse[2]~14_combout\ $end
$var wire 1 B" \inst|AddressMempulse[1]~17_combout\ $end
$var wire 1 C" \inst|AddressMempulse[1]~19_combout\ $end
$var wire 1 D" \inst|AddressMempulse[1]~_emulated_q\ $end
$var wire 1 E" \inst|AddressMempulse[1]~18_combout\ $end
$var wire 1 F" \inst|AddressMempulse[0]~21_combout\ $end
$var wire 1 G" \inst|AddressMempulse[0]~23_combout\ $end
$var wire 1 H" \inst|AddressMempulse[0]~_emulated_q\ $end
$var wire 1 I" \inst|AddressMempulse[0]~22_combout\ $end
$var wire 1 J" \inst|WideOr4~combout\ $end
$var wire 1 K" \inst|countVarAddressPos\ [5] $end
$var wire 1 L" \inst|countVarAddressPos\ [4] $end
$var wire 1 M" \inst|countVarAddressPos\ [3] $end
$var wire 1 N" \inst|countVarAddressPos\ [2] $end
$var wire 1 O" \inst|countVarAddressPos\ [1] $end
$var wire 1 P" \inst|countVarAddressPos\ [0] $end
$var wire 1 Q" \inst|ALT_INV_AddressMempulse[2]~_emulated_q\ $end
$var wire 1 R" \inst|ALT_INV_Equal0~0_combout\ $end
$var wire 1 S" \inst|ALT_INV_Equal0~5_combout\ $end
$var wire 1 T" \inst|ALT_INV_countVarAddressPos\ [5] $end
$var wire 1 U" \inst|ALT_INV_countVarAddressPos\ [4] $end
$var wire 1 V" \inst|ALT_INV_countVarAddressPos\ [3] $end
$var wire 1 W" \inst|ALT_INV_countVarAddressPos\ [2] $end
$var wire 1 X" \inst|ALT_INV_countVarAddressPos\ [1] $end
$var wire 1 Y" \inst|ALT_INV_countVarAddressPos\ [0] $end
$var wire 1 Z" \inst|ALT_INV_Equal0~6_combout\ $end
$var wire 1 [" \inst|ALT_INV_Equal0~2_combout\ $end
$var wire 1 \" \inst|ALT_INV_AddressMempulse[1]~_emulated_q\ $end
$var wire 1 ]" \inst|ALT_INV_Equal0~4_combout\ $end
$var wire 1 ^" \inst|ALT_INV_state.state_6~q\ $end
$var wire 1 _" \inst|ALT_INV_state.state_1~q\ $end
$var wire 1 `" \inst|ALT_INV_state.state_7~q\ $end
$var wire 1 a" \inst|ALT_INV_WideOr3~combout\ $end
$var wire 1 b" \inst|ALT_INV_AddressMempulse[3]~_emulated_q\ $end
$var wire 1 c" \inst|ALT_INV_AddressMempulse[0]~_emulated_q\ $end
$var wire 1 d" \inst|ALT_INV_AddressMempulse[5]~_emulated_q\ $end
$var wire 1 e" \inst|ALT_INV_state.state_rst~q\ $end
$var wire 1 f" \inst|ALT_INV_AddressMempulse[4]~_emulated_q\ $end
$var wire 1 g" \inst|ALT_INV_state.state_5~q\ $end
$var wire 1 h" \inst|ALT_INV_state.state_4~q\ $end
$var wire 1 i" \inst|ALT_INV_Equal0~1_combout\ $end
$var wire 1 j" \inst|ALT_INV_Equal0~3_combout\ $end
$var wire 1 k" \ALT_INV_endProgram[3]~input_o\ $end
$var wire 1 l" \ALT_INV_endProgram[2]~input_o\ $end
$var wire 1 m" \ALT_INV_endProgram[13]~input_o\ $end
$var wire 1 n" \ALT_INV_endProgram[10]~input_o\ $end
$var wire 1 o" \ALT_INV_endProgram[9]~input_o\ $end
$var wire 1 p" \ALT_INV_endProgram[8]~input_o\ $end
$var wire 1 q" \ALT_INV_endProgram[19]~input_o\ $end
$var wire 1 r" \ALT_INV_endProgram[16]~input_o\ $end
$var wire 1 s" \ALT_INV_bufferEndFlag~input_o\ $end
$var wire 1 t" \inst|ALT_INV_AddressMempulse[1]~17_combout\ $end
$var wire 1 u" \inst|ALT_INV_AddressMempulse[5]~1_combout\ $end
$var wire 1 v" \ALT_INV_endProgram[1]~input_o\ $end
$var wire 1 w" \ALT_INV_endProgram[0]~input_o\ $end
$var wire 1 x" \ALT_INV_endProgram[11]~input_o\ $end
$var wire 1 y" \inst|ALT_INV_AddressMempulse[2]~13_combout\ $end
$var wire 1 z" \ALT_INV_start~input_o\ $end
$var wire 1 {" \ALT_INV_endProgram[12]~input_o\ $end
$var wire 1 |" \ALT_INV_endProgram[18]~input_o\ $end
$var wire 1 }" \ALT_INV_endProgram[17]~input_o\ $end
$var wire 1 ~" \ALT_INV_endProgram[15]~input_o\ $end
$var wire 1 !# \inst|ALT_INV_AddressMempulse[3]~9_combout\ $end
$var wire 1 "# \inst|ALT_INV_AddressMempulse[4]~5_combout\ $end
$var wire 1 ## \ALT_INV_rst_n~input_o\ $end
$var wire 1 $# \ALT_INV_endProgram[7]~input_o\ $end
$var wire 1 %# \ALT_INV_endProgram[6]~input_o\ $end
$var wire 1 &# \ALT_INV_endProgram[5]~input_o\ $end
$var wire 1 '# \inst|ALT_INV_countVarAddressPos[3]~0_combout\ $end
$var wire 1 (# \inst|ALT_INV_AddressMempulse[0]~21_combout\ $end
$var wire 1 )# \ALT_INV_endProgram[4]~input_o\ $end
$var wire 1 *# \ALT_INV_endProgram[14]~input_o\ $end
$var wire 1 +# \ALT_INV_endProgram[21]~input_o\ $end
$var wire 1 ,# \ALT_INV_endProgram[29]~input_o\ $end
$var wire 1 -# \ALT_INV_endProgram[23]~input_o\ $end
$var wire 1 .# \ALT_INV_endProgram[27]~input_o\ $end
$var wire 1 /# \ALT_INV_endProgram[24]~input_o\ $end
$var wire 1 0# \ALT_INV_endProgram[28]~input_o\ $end
$var wire 1 1# \ALT_INV_endProgram[25]~input_o\ $end
$var wire 1 2# \ALT_INV_endProgram[26]~input_o\ $end
$var wire 1 3# \ALT_INV_endProgram[31]~input_o\ $end
$var wire 1 4# \ALT_INV_endProgram[30]~input_o\ $end
$var wire 1 5# \ALT_INV_endProgram[22]~input_o\ $end
$var wire 1 6# \ALT_INV_endProgram[20]~input_o\ $end
$upscope $end
$upscope $end
$enddefinitions $end
#0
$dumpvars
0'
1(
0)
02
1S
0T
0U
0V
0W
0X
0Y
1Z
x[
1\
1]
1^
1_
1`
1a
0b
0c
0d
0e
0f
0)!
0*!
1+!
1,!
0-!
0<!
0=!
0>!
1?!
1@!
0A!
0B!
0C!
0D!
0E!
0F!
0G!
0H!
0I!
0J!
0K!
0L!
0M!
0N!
0O!
0P!
0Q!
0R!
0S!
0T!
0U!
0V!
0W!
0X!
0Y!
0Z!
0[!
0\!
0]!
0^!
0_!
0`!
0a!
0b!
0c!
0d!
0e!
0f!
0g!
0h!
0i!
0j!
0k!
0l!
0m!
0n!
0o!
0p!
0q!
0r!
0s!
0t!
0u!
0v!
0w!
0x!
0y!
0z!
0{!
0|!
0}!
0~!
0!"
0""
0#"
0$"
0%"
0&"
0'"
0("
0)"
1*"
0+"
0,"
0-"
0."
0/"
00"
01"
02"
03"
04"
05"
06"
07"
08"
09"
0:"
0;"
0<"
0="
0>"
0?"
0@"
0A"
0B"
0C"
0D"
0E"
0F"
0G"
0H"
0I"
0J"
1Q"
1R"
1S"
1Z"
1["
1\"
1]"
1^"
1_"
1`"
0a"
1b"
1c"
1d"
1e"
1f"
1g"
1h"
1i"
1j"
1k"
1l"
1m"
1n"
1o"
1p"
1q"
1r"
1s"
1t"
1u"
1v"
1w"
1x"
1y"
1z"
1{"
1|"
1}"
1~"
1!#
1"#
1##
1$#
1%#
1&#
1'#
1(#
1)#
1*#
1+#
1,#
1-#
1.#
1/#
10#
11#
12#
13#
14#
15#
16#
03
04
05
06
07
08
09
0:
0;
0<
0=
0>
0?
0@
0A
0B
0C
0D
0E
0F
0G
0H
0I
0J
0K
0L
0M
0N
0O
0P
0Q
0R
0g
0h
0i
0j
0k
0l
0m
0n
0o
0p
0q
0r
0s
0t
0u
0v
0w
0x
0y
0z
0{
0|
0}
0~
0!!
0"!
0#!
0$!
0%!
0&!
0'!
0(!
0.!
0/!
00!
01!
02!
03!
04!
05!
06!
07!
08!
09!
0:!
0;!
0K"
0L"
0M"
0N"
0O"
0P"
1T"
1U"
1V"
1W"
1X"
1Y"
0!
0"
0#
0$
0%
0&
0*
0+
0,
0-
0.
0/
00
01
$end
#10000
1)
1c
1P!
#20000
0)
0c
0P!
#30000
1)
1c
1P!
#40000
0)
0c
0P!
#50000
1)
1c
1P!
#60000
0)
0c
0P!
#70000
1)
1V
1c
1d
1S!
1P!
0##
#80000
0)
1W
0c
1e
1Q!
0P!
0z"
1R!
1&"
#90000
1)
1c
1P!
1T!
1'"
0_"
0e"
0&"
0?!
0@!
0+!
0,!
0(
0S
#100000
0)
0W
0c
0e
0Q!
0P!
1z"
#110000
1)
1c
1P!
1V!
0'"
1_"
0*"
1a"
1<!
1>!
1b
1*!
1U
12
#120000
0)
0c
0P!
#130000
1)
1c
1P!
0V!
1W!
#140000
0)
0c
0P!
#150000
1)
1c
1P!
0W!
1X!
0h"
1""
#160000
0)
0c
0P!
#170000
1)
1c
1P!
0X!
1#"
0g"
1h"
1J"
1J!
1K!
16!
17!
1-
1,
1H!
14!
1*
#180000
0)
0c
0P!
#190000
1)
1c
1P!
#200000
0)
0c
0P!
#210000
1)
1c
1P!
#220000
0)
1'
0c
1f
1U!
0P!
0s"
0""
1$"
#230000
1)
1c
1P!
0#"
1%"
0^"
1g"
0$"
1&"
1*"
1+"
0a"
0J!
0K!
06!
07!
0-
0,
0<!
0>!
0b
0*!
0U
02
#240000
0)
0'
0c
0f
0U!
0P!
1s"
#250000
1)
1c
1P!
0%"
1'"
1P"
0Y"
0_"
1^"
0&"
0J"
1G"
0H!
04!
0*
#260000
0)
0c
0P!
#270000
1)
1c
1P!
1V!
0'"
1H"
0c"
1_"
0*"
1I"
1a"
1G!
1<!
1>!
13!
1b
1*!
1&
1U
12
#280000
0)
0c
0P!
#290000
1)
1c
1P!
0V!
1W!
#300000
0)
0c
0P!
#310000
1)
1c
1P!
0W!
1X!
0h"
1""
#320000
0)
0c
0P!
#330000
1)
1c
1P!
0X!
1#"
0g"
1h"
1J"
1J!
1K!
16!
17!
1-
1,
1H!
14!
1*
#340000
0)
0c
0P!
#350000
1)
1c
1P!
#360000
0)
0c
0P!
#370000
1)
1c
1P!
#380000
0)
0c
0P!
#390000
1)
1c
1P!
#400000
0)
1'
0c
1f
1U!
0P!
0s"
0""
1$"
#410000
1)
1c
1P!
0#"
1%"
0^"
1g"
0$"
1&"
1*"
0+"
1,"
0a"
0J!
0K!
06!
07!
0-
0,
0<!
0>!
0b
0*!
0U
02
#420000
0)
0'
0c
0f
0U!
0P!
1s"
#430000
1)
1c
1P!
0%"
1'"
0P"
1O"
0X"
1Y"
0_"
1^"
0&"
0J"
0G"
1C"
0H!
04!
0*
#440000
0)
0c
0P!
#450000
1)
1c
1P!
1V!
0'"
1D"
0H"
1c"
0\"
1_"
0*"
1E"
0I"
1a"
0G!
1F!
1<!
1>!
03!
12!
1b
1*!
0&
1%
1U
12
#460000
0)
0c
0P!
#470000
1)
1c
1P!
0V!
1W!
#480000
0)
0c
0P!
#490000
1)
1c
1P!
0W!
1X!
0h"
1""
#500000
0)
0c
0P!
#510000
1)
1c
1P!
0X!
1#"
0g"
1h"
1J"
1J!
1K!
16!
17!
1-
1,
1H!
14!
1*
#520000
0)
0c
0P!
#530000
1)
1c
1P!
#540000
0)
0c
0P!
#550000
1)
1c
1P!
#560000
0)
0c
0P!
#570000
1)
1c
1P!
#580000
0)
0c
0P!
#590000
1)
1c
1P!
#600000
0)
0c
0P!
#610000
1)
1c
1P!
#620000
0)
0c
0P!
#630000
1)
1c
1P!
#640000
0)
0c
0P!
#650000
1)
1c
1P!
#660000
0)
0c
0P!
#670000
1)
1c
1P!
#680000
0)
0c
0P!
#690000
1)
1c
1P!
#700000
0)
0c
0P!
#710000
1)
1c
1P!
#720000
0)
0c
0P!
#730000
1)
1c
1P!
#740000
0)
0c
0P!
#750000
1)
1c
1P!
#760000
0)
0c
0P!
#770000
1)
1c
1P!
#780000
0)
0c
0P!
#790000
1)
1c
1P!
#800000
0)
0c
0P!
#810000
1)
1c
1P!
#820000
0)
0c
0P!
#830000
1)
1c
1P!
#840000
0)
0c
0P!
#850000
1)
1c
1P!
#860000
0)
0c
0P!
#870000
1)
1c
1P!
#880000
0)
0c
0P!
#890000
1)
1c
1P!
#900000
0)
0c
0P!
#910000
1)
1c
1P!
#920000
0)
0c
0P!
#930000
1)
1c
1P!
#940000
0)
0c
0P!
#950000
1)
1c
1P!
#960000
0)
0c
0P!
#970000
1)
1c
1P!
#980000
0)
0c
0P!
#990000
1)
1c
1P!
